798406 428712 509
320813 595617 470
45841 591212 470
118655 705466 509
678781 762409 504
246473 822980 509
148478 537699 470
863713 582179 525
774283 673605 504
427396 280239 449
510392 745227 509
781701 795181 437
452204 923110 525
920580 903246 476
292327 933473 525
669888 597020 509
750708 873157 525
308802 722879 509
611106 328754 470
395021 673831 509
246509 18394 443
780933 726317 468
229051 571193 470
803169 113362 509
137669 804030 509
888394 989199 507
579101 203597 470
174202 558297 470
192523 359206 443
871961 785667 525
460597 930296 525
365191 722903 509
580212 933075 525
961691 594900 525
919097 603192 525
596760 546748 434
374081 884132 525
801363 548100 509
282456 581254 470
576689 370349 470
629052 226887 509
500342 210187 449
704910 449737 509
598317 638049 509
173167 586807 470
722571 84383 509
865053 552284 525
262722 395417 441
927286 201653 525
348093 383274 423
717919 751554 424
850434 737064 525
283267 774668 509
473377 276385 449
645581 661253 429
121138 92698 354
176688 712145 509
101928 125688 354
760046 807221 468
411110 391952 449
131200 634158 509
965767 455586 525
189978 657731 509
340268 147539 443
33973 649080 509
905241 875107 445
476812 203831 449
148174 376112 443
341660 116949 443
617924 600566 447
154336 910431 525
86287 656188 509
74461 168528 383
190887 980230 525
527319 527650 346
843403 42919 525
71463 135211 354
289191 354468 441
520875 467579 470
968724 892869 507
836681 134312 509
298385 91258 443
178798 968195 525
488998 225753 449
171927 225369 386
719327 334307 509
884843 490912 525
299660 997513 525
607819 691093 509
60770 540592 470
892438 818420 525
422825 126436 449
176682 629137 509
359995 791343 509
642419 518670 509
67311 889089 525
537024 914668 525
742118 831602 468
251265 3494 443
988886 663542 525
124801 817424 509
514952 849615 525
162321 953481 525
514134 531197 439
310135 306807 371
424224 776919 509
220789 286284 443
941546 416712 525
374477 745168 509
528855 79428 470
590393 691737 509
913065 103766 525
317886 706817 509
438349 25186 449
561473 515258 452
125027 447776 449
99000 343332 443
965174 787395 525
236194 771171 509
192525 403451 443
382283 632929 509
25924 43539 324
23342 682943 509
490849 900590 525
183582 844021 525
57587 248516 443
892598 518475 525
193914 150690 383
125827 441710 449
781268 722656 468
307453 130023 443
485478 746681 509
37932 87945 351
66074 112781 354
37338 589700 470
168265 76838 383
53650 751825 509
443885 475717 444
57678 691720 509
783410 552845 509
556563 763689 509
319270 962212 525
85017 662974 509
412525 334558 449
896108 138111 525
307724 128895 443
151443 672466 509
220249 609973 470
835133 906099 525
340930 780022 509
679537 101041 509
193428 905816 525
61078 162023 383
216634 603312 470
923281 220342 525
540461 212899 470
157691 699255 509
470189 893322 525
82699 968367 525
981071 316059 525
229236 849218 525
225853 96626 386
614251 773565 509
176292 878781 525
167683 235996 443
328142 778933 509
930589 394480 525
971653 783010 525
404596 570886 470
961754 965705 414
893698 859851 445
462293 142291 449
382221 273646 441
216220 779621 509
698015 715924 504
44916 800668 509
982490 929857 507
307364 883409 525
94568 325333 443
600456 968618 525
393926 999733 525
914926 19519 525
780116 658593 504
52929 172327 383
877474 45308 525
654100 331109 509
591502 388213 470
767886 507884 509
865004 201852 525
194044 774901 509
510486 741156 509
835141 87672 509
966384 59730 525
497366 374324 449
377100 188418 443
289409 169983 443
375338 703758 509
1265 326185 443
458670 243408 449
848400 682852 525
162835 410910 449
97705 678240 509
667059 899705 525
785801 98202 509
467162 842430 525
668091 429933 509
934794 269133 525
753525 996569 525
464315 626816 509
235119 166242 443
564349 293491 470
10768 354388 443
620979 2252 470
665149 330313 509
674984 617237 509
530197 967005 525
965135 676405 525
519280 872658 525
864923 506522 525
361053 138678 443
836742 14746 509
305437 121271 443
411634 955903 525
643757 433379 509
817773 605457 509
280744 828509 509
348408 338417 441
895885 617136 525
231658 466784 449
440596 551431 470
599337 588118 403
193847 508741 449
340173 99401 443
196950 969107 525
656677 861655 525
899102 531274 525
446081 149202 449
109714 315997 443
906331 116366 525
188426 906933 525
252623 886971 525
561098 379009 470
117046 778720 509
350562 929863 525
862833 52426 525
504090 565793 470
332482 203133 443
218518 158620 386
365908 743592 509
102620 726706 509